<?xml version="1.0" encoding="UTF-8"?>
<svg width="24px" height="24px" viewBox="0 0 24 24" version="1.1" xmlns="http://www.w3.org/2000/svg" xmlns:xlink="http://www.w3.org/1999/xlink">
    <!-- Generator: Sketch 56.3 (81716) - https://sketch.com -->
    <title>icons/scroll down</title>
    <desc>Created with Sketch.</desc>
    <g id="icons/scroll-down" stroke="none" stroke-width="1" fill="none" fill-rule="evenodd">
        <g fill="#000000" id="Combined-Shape">
            <path d="M12,24 C5.38130526,24 0,18.6186947 0,12 C0,5.38130526 5.38130526,0 12,0 C18.6186947,0 24,5.38130526 24,12 C24,18.6186947 18.6186947,24 12,24 Z M11.1660632,15.7637053 C11.5953347,16.1929768 12.3788968,16.1929768 12.8081684,15.7637053 L17.3555368,11.2163368 C17.8104758,10.7613979 17.8104758,10.0291705 17.3555368,9.57423158 C16.9005979,9.11929263 16.1683705,9.11929263 15.7134316,9.57423158 L12,13.2886737 L8.28656842,9.57423158 C8.05860884,9.34725726 7.75563789,9.22095158 7.45268211,9.22095158 C7.14972632,9.22095158 6.84677053,9.34726737 6.61879579,9.57423158 C6.16385684,10.0291705 6.16385684,10.7613979 6.61879579,11.2163368 L11.1660632,15.7637053 Z"></path>
        </g>
    </g>
</svg>