<?xml version="1.0" encoding="UTF-8"?>
<svg width="22px" height="20px" viewBox="0 0 22 20" version="1.1" xmlns="http://www.w3.org/2000/svg" xmlns:xlink="http://www.w3.org/1999/xlink">
    <!-- Generator: Sketch 54.1 (76490) - https://sketchapp.com -->
    <title>LinkedIn</title>
    <desc>Created with Sketch.</desc>
    <g id="paytm.ca-branded" stroke="none" stroke-width="1" fill="none" fill-rule="evenodd">
        <g id="Landing/1.-Home-Branded-White" transform="translate(-1102.000000, -7247.000000)" fill="#000000">
            <g id="footer" transform="translate(0.000000, 7185.000000)">
                <g id="social" transform="translate(970.000000, 60.000000)">
                    <path d="M154,22 L149.1377,22 L149.1377,14.9692002 C149.1377,13.128898 148.377117,11.8725748 146.70461,11.8725748 C145.425329,11.8725748 144.713899,12.7203688 144.382761,13.5374272 C144.258584,13.8306973 144.277987,14.2392265 144.277987,14.6477557 L144.277987,22 L139.46096,22 C139.46096,22 139.523048,9.54562336 139.46096,8.41352372 L144.277987,8.41352372 L144.277987,10.5458155 C144.562559,9.61349811 146.101834,8.28289684 148.558208,8.28289684 C151.605715,8.28289684 154,10.2371774 154,14.4454121 L154,22 L154,22 Z M134.589605,6.71409362 L134.558561,6.71409362 C133.00635,6.71409362 132,5.67548185 132,4.35896779 C132,3.01684062 133.036101,2 134.619356,2 C136.201317,2 137.174036,3.01427931 137.20508,4.35512582 C137.20508,5.67163988 136.201317,6.71409362 134.589605,6.71409362 L134.589605,6.71409362 L134.589605,6.71409362 Z M132.554915,8.41352372 L136.842897,8.41352372 L136.842897,22 L132.554915,22 L132.554915,8.41352372 L132.554915,8.41352372 Z" id="LinkedIn"></path>
                </g>
            </g>
        </g>
    </g>
</svg>